<svg xmlns="http://www.w3.org/2000/svg" xmlns:xlink="http://www.w3.org/1999/xlink" preserveAspectRatio="xMidYMid" width="18" height="18" viewBox="0 0 18 18">
  <defs>
    <style>
      .cls-1 {
        fill: #98a4af;
        fill-rule: evenodd;
      }
    </style>
  </defs>
  <path d="M15.403,17.999 L2.594,17.999 C1.163,17.999 -0.001,16.835 -0.001,15.404 L-0.001,2.596 C-0.001,1.165 1.163,0.001 2.594,0.001 L15.403,0.001 C16.834,0.001 17.998,1.165 17.998,2.596 L17.998,15.404 C17.998,16.835 16.834,17.999 15.403,17.999 ZM16.705,2.596 C16.705,1.878 16.121,1.294 15.403,1.294 L2.594,1.294 C1.876,1.294 1.292,1.878 1.292,2.596 L1.292,15.404 C1.292,16.122 1.876,16.706 2.594,16.706 L9.214,16.706 L9.214,8.758 L8.012,8.758 L8.012,7.464 L9.293,7.464 C9.671,4.801 11.686,4.009 12.812,3.989 L12.824,4.635 L12.841,5.282 C12.629,5.289 10.970,5.419 10.590,7.464 L12.410,7.464 L12.410,8.758 L10.507,8.758 L10.507,16.706 L15.403,16.706 C16.121,16.706 16.705,16.122 16.705,15.404 L16.705,2.596 Z" class="cls-1"/>
</svg>
