<svg xmlns="http://www.w3.org/2000/svg" xmlns:xlink="http://www.w3.org/1999/xlink" preserveAspectRatio="xMidYMid" width="16" height="16" viewBox="0 0 16 16">
  <defs>
    <style>
      .cls-1 {
        fill: #98a4af;
        fill-rule: evenodd;
      }
    </style>
  </defs>
  <path d="M6.999,5.996 L5.000,5.996 L5.000,12.999 L6.999,12.999 L6.999,5.996 ZM10.998,5.996 L8.999,5.996 L8.999,12.999 L10.998,12.999 L10.998,5.996 ZM14.996,1.995 L9.998,1.995 L9.998,1.000 C9.998,0.444 9.548,-0.006 8.993,-0.006 L7.005,-0.006 C6.450,-0.006 6.000,0.444 6.000,1.000 L6.000,1.995 L1.002,1.995 L0.002,1.995 L0.002,3.996 L1.144,3.996 L1.930,15.070 C1.970,15.595 2.407,16.000 2.933,16.000 L13.065,16.000 C13.591,16.000 14.028,15.595 14.068,15.070 L14.919,3.996 L15.996,3.996 L15.996,1.995 L14.996,1.995 ZM12.145,13.999 L3.853,13.999 L3.001,3.996 L12.997,3.996 L12.145,13.999 Z" class="cls-1"/>
</svg>
