<svg xmlns="http://www.w3.org/2000/svg" xmlns:xlink="http://www.w3.org/1999/xlink" preserveAspectRatio="xMidYMid" width="16" height="16" viewBox="0 0 16 16">
  <defs>
    <style>
      .cls-1 {
        fill: #98a4af;
        fill-rule: evenodd;
      }
    </style>
  </defs>
  <path d="M14.268,0.771 L12.874,0.771 L12.874,2.292 L14.268,2.292 C14.446,2.292 14.592,2.451 14.592,2.647 L14.592,14.109 C14.592,14.304 14.446,14.463 14.268,14.463 L1.731,14.463 C1.551,14.463 1.406,14.304 1.406,14.109 L1.406,2.647 C1.406,2.451 1.551,2.292 1.731,2.292 L3.124,2.292 L3.124,0.771 L1.731,0.771 C0.784,0.771 0.013,1.613 0.013,2.647 L0.013,14.109 C0.013,15.143 0.784,15.985 1.731,15.985 L14.268,15.985 C15.215,15.985 15.985,15.143 15.985,14.109 L15.985,2.647 C15.985,1.613 15.215,0.771 14.268,0.771 ZM5.909,0.010 L4.516,0.010 L4.516,3.053 L5.909,3.053 L5.909,0.010 ZM8.695,0.010 L7.302,0.010 L7.302,3.053 L8.695,3.053 L8.695,0.010 ZM11.481,0.010 L10.088,0.010 L10.088,3.053 L11.481,3.053 L11.481,0.010 ZM4.516,4.574 L3.123,4.574 L3.123,6.096 L4.516,6.096 L4.516,4.574 ZM7.302,4.574 L5.909,4.574 L5.909,6.096 L7.302,6.096 L7.302,4.574 ZM10.088,4.574 L8.695,4.574 L8.695,6.096 L10.088,6.096 L10.088,4.574 ZM12.874,4.574 L11.481,4.574 L11.481,6.096 L12.874,6.096 L12.874,4.574 ZM4.516,7.617 L3.123,7.617 L3.123,9.138 L4.516,9.138 L4.516,7.617 ZM7.302,7.617 L5.909,7.617 L5.909,9.138 L7.302,9.138 L7.302,7.617 ZM10.088,7.617 L8.695,7.617 L8.695,9.138 L10.088,9.138 L10.088,7.617 ZM12.874,7.617 L11.481,7.617 L11.481,9.138 L12.874,9.138 L12.874,7.617 ZM3.123,12.181 L4.516,12.181 L4.516,10.660 L3.123,10.660 L3.123,12.181 ZM5.909,12.181 L7.302,12.181 L7.302,10.660 L5.909,10.660 L5.909,12.181 ZM8.695,12.181 L10.088,12.181 L10.088,10.660 L8.695,10.660 L8.695,12.181 ZM11.481,12.181 L12.874,12.181 L12.874,10.660 L11.481,10.660 L11.481,12.181 Z" class="cls-1"/>
</svg>
