<svg xmlns="http://www.w3.org/2000/svg" xmlns:xlink="http://www.w3.org/1999/xlink" preserveAspectRatio="xMidYMid" width="28" height="20" viewBox="0 0 28 20">
  <defs>
    <style>
      .cls-1 {
        fill: #35bd8e;
        fill-rule: evenodd;
      }
    </style>
  </defs>
  <path d="M23.602,19.996 L17.152,19.996 C16.604,19.996 16.000,19.407 16.000,18.864 L16.000,14.933 C16.000,14.389 16.604,13.998 17.152,13.998 L17.971,13.998 L14.189,9.625 L10.522,13.998 L11.202,13.998 C11.750,13.998 11.999,14.389 11.999,14.933 L11.999,18.864 C11.999,19.407 11.750,19.996 11.202,19.996 L6.222,19.996 C2.791,19.996 -0.001,17.127 -0.001,13.691 C-0.001,10.741 2.125,8.168 4.960,7.577 C6.022,3.156 9.981,-0.001 14.634,-0.001 C20.126,-0.001 24.593,4.417 24.593,9.859 C24.593,10.281 24.563,10.705 24.503,11.137 C25.203,11.267 26.070,11.557 26.773,12.198 C27.576,12.931 28.000,14.050 28.000,15.295 C28.000,17.760 25.945,19.996 23.602,19.996 ZM18.000,17.997 L23.602,17.997 C24.865,17.997 26.017,16.670 26.017,15.277 C26.017,14.589 25.832,14.051 25.452,13.692 C24.705,12.983 23.393,13.011 23.383,13.009 C23.073,13.036 22.761,12.883 22.563,12.642 C22.364,12.402 22.285,12.079 22.361,11.778 C22.526,11.123 22.610,10.475 22.610,9.852 C22.610,5.494 19.032,1.947 14.634,1.947 C10.711,1.947 7.405,4.732 6.774,8.570 C6.700,9.015 6.330,9.354 5.876,9.391 C3.692,9.569 1.982,11.483 1.982,13.674 C1.982,16.025 3.884,17.997 6.222,17.997 L9.999,17.997 L9.999,15.998 L8.408,15.998 C8.023,15.998 7.673,15.736 7.510,15.391 C7.346,15.046 7.400,14.618 7.645,14.325 L13.415,7.400 C13.601,7.177 13.878,7.001 14.170,7.001 C14.173,7.001 14.174,7.001 14.177,7.001 C14.467,7.001 14.742,7.161 14.930,7.379 L20.880,14.276 C21.132,14.567 21.190,15.027 21.028,15.376 C20.866,15.724 20.514,15.998 20.127,15.998 L18.000,15.998 L18.000,17.997 Z" class="cls-1"/>
</svg>
