<svg xmlns="http://www.w3.org/2000/svg" xmlns:xlink="http://www.w3.org/1999/xlink" preserveAspectRatio="xMidYMid" width="111.062" height="111" viewBox="0 0 111.062 111">
  <defs>
    <style>
      .cls-1 {
        fill: #fff;
        fill-rule: evenodd;
      }
    </style>
  </defs>
  <path d="M110.865,33.259 L99.479,60.584 L99.479,73.997 L104.105,73.997 C105.384,73.997 106.418,75.031 106.418,76.310 L106.418,90.186 C106.418,91.464 105.384,92.499 104.105,92.499 L96.009,92.499 L82.825,110.074 C82.380,110.668 81.689,111.000 80.975,111.000 L71.723,111.000 C70.444,111.000 69.410,109.966 69.410,108.687 L69.410,57.809 C69.410,56.531 70.444,55.496 71.723,55.496 L80.947,55.496 C81.673,55.486 82.374,55.821 82.825,56.421 L94.853,72.457 L94.853,60.121 C94.853,59.817 94.914,59.514 95.032,59.231 L105.765,33.472 L91.262,26.222 L89.983,28.778 C89.579,29.584 88.763,30.057 87.914,30.057 C87.609,30.057 87.300,29.996 87.004,29.870 L55.532,16.384 L24.060,29.870 C22.942,30.343 21.628,29.873 21.081,28.778 L19.802,26.222 L5.299,33.472 L16.033,59.231 C16.150,59.514 16.211,59.817 16.211,60.121 L16.211,72.457 L28.239,56.421 C28.685,55.830 29.376,55.498 30.089,55.498 L30.089,55.496 L30.098,55.496 C30.102,55.496 30.106,55.496 30.110,55.496 L39.341,55.496 C40.620,55.496 41.654,56.531 41.654,57.809 L41.654,108.687 C41.654,109.966 40.620,111.000 39.341,111.000 L30.089,111.000 C29.375,111.000 28.684,110.668 28.239,110.074 L15.056,92.499 L6.959,92.499 C5.680,92.499 4.646,91.464 4.646,90.186 L4.646,76.310 C4.646,75.031 5.680,73.997 6.959,73.997 L11.585,73.997 L11.585,60.584 L0.199,33.259 C-0.269,32.136 0.212,30.845 1.299,30.300 L17.734,22.085 L16.455,19.527 C16.173,18.961 16.134,18.301 16.349,17.705 C16.566,17.109 17.015,16.628 17.598,16.375 L54.606,0.186 C55.193,-0.071 55.871,-0.071 56.458,0.186 L93.466,16.375 C94.049,16.628 94.498,17.109 94.715,17.705 C94.930,18.301 94.892,18.961 94.609,19.527 L93.331,22.085 L109.765,30.300 C110.852,30.845 111.333,32.136 110.865,33.259 ZM78.662,60.121 L74.036,60.121 L74.036,106.374 L78.662,106.374 L78.662,60.121 ZM92.540,77.080 L83.288,64.747 L83.288,101.749 L92.540,89.416 L92.540,77.080 ZM97.166,87.873 L101.792,87.873 L101.792,78.622 L97.166,78.622 L97.166,87.873 ZM32.402,106.374 L37.028,106.374 L37.028,60.121 L32.402,60.121 L32.402,106.374 ZM18.524,89.416 L27.776,101.749 L27.776,64.747 L18.524,77.080 L18.524,89.416 ZM9.272,78.622 L9.272,87.873 L13.898,87.873 L13.898,78.622 L9.272,78.622 ZM55.532,4.830 L21.682,19.636 L24.243,24.758 L54.622,11.743 C54.911,11.619 55.223,11.555 55.532,11.555 C55.841,11.555 56.153,11.619 56.442,11.743 L86.821,24.758 L89.382,19.636 L55.532,4.830 Z" class="cls-1"/>
</svg>
