<svg xmlns="http://www.w3.org/2000/svg" xmlns:xlink="http://www.w3.org/1999/xlink" preserveAspectRatio="xMidYMid" width="11" height="3" viewBox="0 0 11 3">
  <defs>
    <style>
      .cls-1 {
        fill: #5c6771;
      }
    </style>
  </defs>
  <rect width="11" height="3" class="cls-1"/>
</svg>
