<svg xmlns="http://www.w3.org/2000/svg" xmlns:xlink="http://www.w3.org/1999/xlink" preserveAspectRatio="xMidYMid" width="34.97" height="33.969" viewBox="0 0 34.97 33.969">
  <defs>
    <style>
      .cls-1 {
        fill: #fff;
        fill-rule: evenodd;
      }
    </style>
  </defs>
  <path d="M34.845,33.633 C34.710,33.838 34.482,33.962 34.239,33.962 L18.196,33.962 L3.612,33.962 C3.369,33.962 3.141,33.838 3.006,33.633 C2.870,33.428 2.845,33.167 2.939,32.939 L10.231,15.204 C10.458,14.653 11.351,14.653 11.577,15.204 L15.176,23.956 L22.631,6.330 C22.745,6.058 23.009,5.882 23.301,5.882 C23.582,5.845 23.860,6.061 23.974,6.337 L34.912,32.939 C35.006,33.167 34.981,33.428 34.845,33.633 ZM10.904,17.410 L4.706,32.484 L17.103,32.484 L10.904,17.410 ZM23.291,8.519 L19.790,16.798 L21.113,18.138 L22.785,16.444 C23.070,16.155 23.531,16.155 23.816,16.444 L25.488,18.138 L26.729,16.881 L23.291,8.519 ZM27.336,18.356 L26.004,19.706 C25.862,19.850 25.675,19.922 25.488,19.922 C25.302,19.922 25.115,19.850 24.973,19.706 L23.301,18.011 L21.629,19.706 C21.344,19.994 20.882,19.994 20.598,19.706 L19.171,18.261 L15.958,25.858 L18.682,32.484 L33.145,32.484 L27.336,18.356 ZM18.196,4.405 C18.010,4.405 17.823,4.332 17.681,4.188 L15.279,1.755 L12.878,4.188 C12.593,4.477 12.132,4.477 11.847,4.188 L9.446,1.755 L7.045,4.188 C6.760,4.477 6.298,4.477 6.013,4.188 L3.612,1.755 L1.211,4.188 C0.926,4.477 0.465,4.477 0.180,4.188 C-0.105,3.899 -0.105,3.432 0.180,3.143 L3.097,0.187 C3.382,-0.101 3.843,-0.101 4.128,0.187 L6.529,2.621 L8.930,0.187 C9.215,-0.101 9.677,-0.101 9.961,0.187 L12.363,2.621 L14.764,0.187 C15.049,-0.101 15.510,-0.101 15.795,0.187 L18.712,3.143 C18.997,3.432 18.997,3.899 18.712,4.188 C18.570,4.332 18.383,4.405 18.196,4.405 ZM3.097,6.099 C3.382,5.810 3.843,5.810 4.128,6.099 L6.529,8.532 L8.930,6.099 C9.215,5.810 9.677,5.810 9.961,6.099 L12.878,9.055 C13.163,9.343 13.163,9.811 12.878,10.099 C12.736,10.244 12.549,10.316 12.363,10.316 C12.176,10.316 11.989,10.244 11.847,10.099 L9.446,7.666 L7.045,10.099 C6.760,10.388 6.298,10.388 6.013,10.099 L3.612,7.666 L1.211,10.099 C0.926,10.388 0.465,10.388 0.180,10.099 C-0.105,9.811 -0.105,9.343 0.180,9.055 L3.097,6.099 Z" class="cls-1"/>
</svg>
