<svg xmlns="http://www.w3.org/2000/svg" xmlns:xlink="http://www.w3.org/1999/xlink" preserveAspectRatio="xMidYMid" width="37.781" height="34.312" viewBox="0 0 37.781 34.312">
  <defs>
    <style>
      .cls-1 {
        fill: #fff;
        fill-rule: evenodd;
      }
    </style>
  </defs>
  <path d="M37.549,6.011 L32.825,10.688 C32.677,10.834 32.477,10.917 32.268,10.917 L29.540,10.917 L20.945,23.680 L29.309,25.750 C29.660,25.837 29.906,26.149 29.906,26.506 L29.906,31.640 L31.250,32.971 C31.557,33.275 31.557,33.768 31.250,34.073 C31.096,34.225 30.895,34.301 30.693,34.301 C30.492,34.301 30.290,34.225 30.136,34.073 L28.793,32.742 L9.760,32.742 L8.416,34.073 C8.262,34.225 8.061,34.301 7.859,34.301 C7.658,34.301 7.456,34.225 7.303,34.073 C6.995,33.768 6.995,33.275 7.303,32.971 L8.321,31.963 L1.791,25.499 C1.484,25.194 1.484,24.701 1.791,24.397 L8.877,17.381 C9.025,17.235 9.225,17.153 9.434,17.153 L10.683,17.153 L4.384,10.917 L2.348,10.917 C2.010,10.917 1.708,10.702 1.600,10.384 L0.026,5.707 C-0.063,5.441 -0.002,5.149 0.186,4.941 C0.375,4.732 0.667,4.637 0.938,4.699 L11.961,7.037 C12.233,7.095 12.455,7.291 12.544,7.552 L13.331,9.891 C13.411,10.128 13.371,10.390 13.222,10.593 C13.074,10.797 12.837,10.917 12.584,10.917 L6.611,10.917 L12.910,17.153 L17.308,17.153 C17.635,17.153 17.929,17.354 18.045,17.658 L19.868,22.470 L28.463,9.705 C28.610,9.488 28.856,9.358 29.118,9.358 L31.942,9.358 L35.879,5.460 L31.942,1.563 L25.969,1.563 C25.534,1.563 25.182,1.215 25.182,0.783 C25.182,0.352 25.534,0.004 25.969,0.004 L32.268,0.004 C32.477,0.004 32.677,0.086 32.825,0.232 L37.549,4.909 C37.856,5.214 37.856,5.707 37.549,6.011 ZM11.492,9.358 L11.192,8.468 L1.956,6.509 L2.915,9.358 L11.492,9.358 ZM19.479,24.925 C19.422,24.910 19.379,24.871 19.327,24.845 C19.297,24.830 19.262,24.836 19.233,24.817 C19.215,24.804 19.205,24.785 19.188,24.772 C19.155,24.746 19.131,24.717 19.102,24.686 C19.048,24.628 19.004,24.567 18.971,24.497 C18.961,24.477 18.941,24.463 18.933,24.442 L16.762,18.711 L9.760,18.711 L3.461,24.947 L9.760,31.184 L28.331,31.184 L28.331,27.115 L19.479,24.925 ZM18.095,29.624 L13.371,29.624 C12.936,29.624 12.584,29.276 12.584,28.845 C12.584,28.415 12.936,28.066 13.371,28.066 L13.832,28.066 L12.691,26.935 L12.148,27.204 C12.038,27.259 11.916,27.286 11.796,27.286 C11.676,27.286 11.555,27.259 11.444,27.204 L9.869,26.424 C9.603,26.292 9.434,26.023 9.434,25.727 L9.434,24.168 C9.434,23.872 9.603,23.603 9.869,23.471 L11.444,22.691 C11.666,22.582 11.927,22.582 12.148,22.691 L13.723,23.471 C13.989,23.603 14.158,23.872 14.158,24.168 L14.158,25.727 C14.158,25.855 14.114,25.973 14.056,26.083 L16.059,28.066 L18.095,28.066 C18.530,28.066 18.883,28.415 18.883,28.845 C18.883,29.276 18.530,29.624 18.095,29.624 ZM12.584,24.649 L11.796,24.260 L11.009,24.649 L11.009,25.246 L11.796,25.635 L12.584,25.246 L12.584,24.649 Z" class="cls-1"/>
</svg>
