<svg xmlns="http://www.w3.org/2000/svg" xmlns:xlink="http://www.w3.org/1999/xlink" preserveAspectRatio="xMidYMid" width="23" height="12" viewBox="0 0 23 12">
  <defs>
    <style>
      .cls-1 {
        fill: #98a4af;
        fill-rule: evenodd;
      }
    </style>
  </defs>
  <path d="M11.250,11.832 L12.624,11.832 C12.624,11.832 13.039,11.791 13.252,11.584 C13.447,11.394 13.441,11.037 13.441,11.037 C13.441,11.037 13.413,9.368 14.269,9.122 C15.114,8.880 16.197,10.735 17.346,11.449 C18.214,11.989 18.874,11.871 18.874,11.871 L21.946,11.832 C21.946,11.832 23.552,11.742 22.790,10.599 C22.728,10.505 22.346,9.753 20.506,8.207 C18.581,6.589 18.839,6.851 21.159,4.052 C22.571,2.347 23.136,1.306 22.959,0.860 C22.791,0.436 21.752,0.548 21.752,0.548 L18.294,0.567 C18.294,0.567 18.038,0.536 17.848,0.639 C17.662,0.739 17.543,0.974 17.543,0.974 C17.543,0.974 16.995,2.294 16.265,3.416 C14.726,5.783 14.110,5.908 13.858,5.761 C13.273,5.418 13.419,4.385 13.419,3.650 C13.419,1.356 13.803,0.400 12.671,0.152 C12.295,0.070 12.018,0.016 11.057,0.007 C9.823,-0.005 8.779,0.010 8.187,0.272 C7.794,0.447 7.490,0.836 7.676,0.858 C7.904,0.886 8.421,0.984 8.696,1.322 C9.050,1.759 9.038,2.739 9.038,2.739 C9.038,2.739 9.241,5.439 8.562,5.775 C8.096,6.005 7.457,5.535 6.084,3.388 C5.381,2.287 4.849,1.072 4.849,1.072 C4.849,1.072 4.747,0.844 4.565,0.723 C4.343,0.575 4.033,0.528 4.033,0.528 L0.747,0.548 C0.747,0.548 0.255,0.561 0.073,0.755 C-0.088,0.928 0.060,1.285 0.060,1.285 C0.060,1.285 2.633,6.734 5.546,9.480 C8.217,11.998 11.250,11.832 11.250,11.832 Z" class="cls-1"/>
</svg>
